{
  "data": [
    {
      "title": "Kate & Leopold",
      "year": 2001,
      "imdbID": "tt0035423",
      "imdbRating": 6.4,
      "rottenTomatoesRating": 52,
      "metacriticRating": 44,
      "classification": "PG-13"
    },
    {
      "title": "The Other Side of the Wind",
      "year": 2018,
      "imdbID": "tt0069049",
      "imdbRating": 6.7,
      "rottenTomatoesRating": 83,
      "metacriticRating": 78,
      "classification": "R"
    },
    {
      "title": "A Tale of Springtime",
      "year": 1990,
      "imdbID": "tt0097106",
      "imdbRating": 7.1,
      "rottenTomatoesRating": 86,
      "metacriticRating": null,
      "classification": "PG"
    },
    {
      "title": "Moon 44",
      "year": 1990,
      "imdbID": "tt0097910",
      "imdbRating": 5,
      "rottenTomatoesRating": 0,
      "metacriticRating": 39,
      "classification": "R"
    },
    {
      "title": "The Match Factory Girl",
      "year": 1990,
      "imdbID": "tt0098532",
      "imdbRating": 7.5,
      "rottenTomatoesRating": null,
      "metacriticRating": null,
      "classification": "Not Rated"
    },
    {
      "title": "Three Men and a Little Lady",
      "year": 1990,
      "imdbID": "tt0098966",
      "imdbRating": 5.4,
      "rottenTomatoesRating": 40,
      "metacriticRating": 51,
      "classification": "PG"
    },
    {
      "title": "Boiling Point",
      "year": 1990,
      "imdbID": "tt0098967",
      "imdbRating": 6.7,
      "rottenTomatoesRating": 94,
      "metacriticRating": null,
      "classification": "Not Rated"
    },
    {
      "title": "The Adventures of Ford Fairlane",
      "year": 1990,
      "imdbID": "tt0098987",
      "imdbRating": 6.4,
      "rottenTomatoesRating": 25,
      "metacriticRating": 24,
      "classification": "R"
    },
    {
      "title": "Agneepath",
      "year": 1990,
      "imdbID": "tt0098999",
      "imdbRating": 7.6,
      "rottenTomatoesRating": null,
      "metacriticRating": null,
      "classification": "Not Rated"
    },
    {
      "title": "Air America",
      "year": 1990,
      "imdbID": "tt0099005",
      "imdbRating": 5.8,
      "rottenTomatoesRating": 13,
      "metacriticRating": 33,
      "classification": "R"
    },
    {
      "title": "Alice",
      "year": 1990,
      "imdbID": "tt0099012",
      "imdbRating": 6.6,
      "rottenTomatoesRating": 71,
      "metacriticRating": 67,
      "classification": "PG-13"
    },
    {
      "title": "An Angel at My Table",
      "year": 1990,
      "imdbID": "tt0099040",
      "imdbRating": 7.5,
      "rottenTomatoesRating": 95,
      "metacriticRating": 79,
      "classification": "R"
    },
    {
      "title": "Another 48 Hrs.",
      "year": 1990,
      "imdbID": "tt0099044",
      "imdbRating": 5.9,
      "rottenTomatoesRating": 20,
      "metacriticRating": 23,
      "classification": "R"
    },
    {
      "title": "Arachnophobia",
      "year": 1990,
      "imdbID": "tt0099052",
      "imdbRating": 6.5,
      "rottenTomatoesRating": 93,
      "metacriticRating": 67,
      "classification": "PG-13"
    },
    {
      "title": "Avalon",
      "year": 1990,
      "imdbID": "tt0099073",
      "imdbRating": 7.2,
      "rottenTomatoesRating": 86,
      "metacriticRating": 68,
      "classification": "PG"
    },
    {
      "title": "Awakenings",
      "year": 1990,
      "imdbID": "tt0099077",
      "imdbRating": 7.8,
      "rottenTomatoesRating": 86,
      "metacriticRating": 74,
      "classification": "PG-13"
    },
    {
      "title": "Back to the Future Part III",
      "year": 1990,
      "imdbID": "tt0099088",
      "imdbRating": 7.4,
      "rottenTomatoesRating": 80,
      "metacriticRating": 55,
      "classification": "PG"
    },
    {
      "title": "Bad Influence",
      "year": 1990,
      "imdbID": "tt0099091",
      "imdbRating": 6.2,
      "rottenTomatoesRating": 65,
      "metacriticRating": 63,
      "classification": "R"
    },
    {
      "title": "Basket Case 2",
      "year": 1990,
      "imdbID": "tt0099108",
      "imdbRating": 5.4,
      "rottenTomatoesRating": 71,
      "metacriticRating": null,
      "classification": "R"
    },
    {
      "title": "Bird on a Wire",
      "year": 1990,
      "imdbID": "tt0099141",
      "imdbRating": 6,
      "rottenTomatoesRating": 26,
      "metacriticRating": 36,
      "classification": "PG-13"
    },
    {
      "title": "Blue Steel",
      "year": 1990,
      "imdbID": "tt0099160",
      "imdbRating": 5.7,
      "rottenTomatoesRating": 75,
      "metacriticRating": 54,
      "classification": "R"
    },
    {
      "title": "The Bonfire of the Vanities",
      "year": 1990,
      "imdbID": "tt0099165",
      "imdbRating": 5.6,
      "rottenTomatoesRating": 15,
      "metacriticRating": 27,
      "classification": "R"
    },
    {
      "title": "Bride of Re-Animator",
      "year": 1990,
      "imdbID": "tt0099180",
      "imdbRating": 6.2,
      "rottenTomatoesRating": 37,
      "metacriticRating": 54,
      "classification": "R"
    },
    {
      "title": "Cadillac Man",
      "year": 1990,
      "imdbID": "tt0099204",
      "imdbRating": 5.7,
      "rottenTomatoesRating": 58,
      "metacriticRating": 50,
      "classification": "R"
    },
    {
      "title": "Child's Play 2",
      "year": 1990,
      "imdbID": "tt0099253",
      "imdbRating": 5.9,
      "rottenTomatoesRating": 40,
      "metacriticRating": 37,
      "classification": "R"
    },
    {
      "title": "My Mother's Castle",
      "year": 1990,
      "imdbID": "tt0099266",
      "imdbRating": 7.6,
      "rottenTomatoesRating": 67,
      "metacriticRating": null,
      "classification": "PG"
    },
    {
      "title": "Class of 1999",
      "year": 1990,
      "imdbID": "tt0099277",
      "imdbRating": 5.9,
      "rottenTomatoesRating": 63,
      "metacriticRating": 33,
      "classification": "R"
    },
    {
      "title": "The Comfort of Strangers",
      "year": 1990,
      "imdbID": "tt0099292",
      "imdbRating": 6.3,
      "rottenTomatoesRating": 48,
      "metacriticRating": 61,
      "classification": "R"
    },
    {
      "title": "Cry-Baby",
      "year": 1990,
      "imdbID": "tt0099329",
      "imdbRating": 6.5,
      "rottenTomatoesRating": 72,
      "metacriticRating": 63,
      "classification": "PG-13"
    },
    {
      "title": "Cyrano de Bergerac",
      "year": 1990,
      "imdbID": "tt0099334",
      "imdbRating": 7.5,
      "rottenTomatoesRating": 100,
      "metacriticRating": 79,
      "classification": "PG"
    },
    {
      "title": "Dances with Wolves",
      "year": 1990,
      "imdbID": "tt0099348",
      "imdbRating": 8,
      "rottenTomatoesRating": 87,
      "metacriticRating": 72,
      "classification": "PG-13"
    },
    {
      "title": "Darkman",
      "year": 1990,
      "imdbID": "tt0099365",
      "imdbRating": 6.4,
      "rottenTomatoesRating": 84,
      "metacriticRating": 65,
      "classification": "R"
    },
    {
      "title": "Days of Thunder",
      "year": 1990,
      "imdbID": "tt0099371",
      "imdbRating": 6.1,
      "rottenTomatoesRating": 38,
      "metacriticRating": 60,
      "classification": "PG-13"
    },
    {
      "title": "Death Warrant",
      "year": 1990,
      "imdbID": "tt0099385",
      "imdbRating": 5.7,
      "rottenTomatoesRating": 0,
      "metacriticRating": 34,
      "classification": "R"
    },
    {
      "title": "Delta Force 2: The Colombian Connection",
      "year": 1990,
      "imdbID": "tt0099399",
      "imdbRating": 4.9,
      "rottenTomatoesRating": 11,
      "metacriticRating": null,
      "classification": "R"
    },
    {
      "title": "Desperate Hours",
      "year": 1990,
      "imdbID": "tt0099409",
      "imdbRating": 5.4,
      "rottenTomatoesRating": 29,
      "metacriticRating": 33,
      "classification": "R"
    },
    {
      "title": "Dick Tracy",
      "year": 1990,
      "imdbID": "tt0099422",
      "imdbRating": 6.2,
      "rottenTomatoesRating": 63,
      "metacriticRating": 68,
      "classification": "PG"
    },
    {
      "title": "Die Hard 2",
      "year": 1990,
      "imdbID": "tt0099423",
      "imdbRating": 7.1,
      "rottenTomatoesRating": 70,
      "metacriticRating": 67,
      "classification": "R"
    },
    {
      "title": "Bullet in the Head",
      "year": 1990,
      "imdbID": "tt0099426",
      "imdbRating": 7.5,
      "rottenTomatoesRating": 100,
      "metacriticRating": null,
      "classification": "Not Rated"
    },
    {
      "title": "Dil",
      "year": 1990,
      "imdbID": "tt0099429",
      "imdbRating": 6.6,
      "rottenTomatoesRating": null,
      "metacriticRating": null,
      "classification": "Not Rated"
    },
    {
      "title": "DuckTales the Movie: Treasure of the Lost Lamp",
      "year": 1990,
      "imdbID": "tt0099472",
      "imdbRating": 6.8,
      "rottenTomatoesRating": 89,
      "metacriticRating": null,
      "classification": "G"
    },
    {
      "title": "Edward Scissorhands",
      "year": 1990,
      "imdbID": "tt0099487",
      "imdbRating": 7.9,
      "rottenTomatoesRating": 89,
      "metacriticRating": 74,
      "classification": "PG-13"
    },
    {
      "title": "Ernest Goes to Jail",
      "year": 1990,
      "imdbID": "tt0099512",
      "imdbRating": 5.4,
      "rottenTomatoesRating": 11,
      "metacriticRating": 40,
      "classification": "PG"
    },
    {
      "title": "The Exorcist III",
      "year": 1990,
      "imdbID": "tt0099528",
      "imdbRating": 6.5,
      "rottenTomatoesRating": 58,
      "metacriticRating": 48,
      "classification": "R"
    },
    {
      "title": "Operation Condor",
      "year": 1991,
      "imdbID": "tt0099558",
      "imdbRating": 7.2,
      "rottenTomatoesRating": 71,
      "metacriticRating": null,
      "classification": "PG-13"
    },
    {
      "title": "The Field",
      "year": 1990,
      "imdbID": "tt0099566",
      "imdbRating": 7.3,
      "rottenTomatoesRating": 43,
      "metacriticRating": null,
      "classification": "PG-13"
    },
    {
      "title": "Fire Birds",
      "year": 1990,
      "imdbID": "tt0099575",
      "imdbRating": 4.7,
      "rottenTomatoesRating": 9,
      "metacriticRating": 31,
      "classification": "PG-13"
    },
    {
      "title": "Flashback",
      "year": 1990,
      "imdbID": "tt0099581",
      "imdbRating": 6.2,
      "rottenTomatoesRating": 40,
      "metacriticRating": null,
      "classification": "R"
    },
    {
      "title": "Flatliners",
      "year": 1990,
      "imdbID": "tt0099582",
      "imdbRating": 6.5,
      "rottenTomatoesRating": 50,
      "metacriticRating": 55,
      "classification": "R"
    },
    {
      "title": "Flight of the Intruder",
      "year": 1991,
      "imdbID": "tt0099587",
      "imdbRating": 5.8,
      "rottenTomatoesRating": 25,
      "metacriticRating": null,
      "classification": "PG-13"
    },
    {
      "title": "Frankenhooker",
      "year": 1990,
      "imdbID": "tt0099611",
      "imdbRating": 6.2,
      "rottenTomatoesRating": 57,
      "metacriticRating": null,
      "classification": "R"
    },
    {
      "title": "The Freshman",
      "year": 1990,
      "imdbID": "tt0099615",
      "imdbRating": 6.4,
      "rottenTomatoesRating": 94,
      "metacriticRating": 78,
      "classification": "PG"
    },
    {
      "title": "Ghost",
      "year": 1990,
      "imdbID": "tt0099653",
      "imdbRating": 7.1,
      "rottenTomatoesRating": 76,
      "metacriticRating": 52,
      "classification": "PG-13"
    },
    {
      "title": "Ghost Dad",
      "year": 1990,
      "imdbID": "tt0099654",
      "imdbRating": 4.4,
      "rottenTomatoesRating": 6,
      "metacriticRating": null,
      "classification": "PG"
    },
    {
      "title": "My Father's Glory",
      "year": 1990,
      "imdbID": "tt0099669",
      "imdbRating": 7.6,
      "rottenTomatoesRating": 100,
      "metacriticRating": null,
      "classification": "G"
    },
    {
      "title": "The Godfather: Part III",
      "year": 1990,
      "imdbID": "tt0099674",
      "imdbRating": 7.6,
      "rottenTomatoesRating": 67,
      "metacriticRating": 60,
      "classification": "R"
    },
    {
      "title": "Goodfellas",
      "year": 1990,
      "imdbID": "tt0099685",
      "imdbRating": 8.7,
      "rottenTomatoesRating": 96,
      "metacriticRating": 91,
      "classification": "R"
    },
    {
      "title": "Graveyard Shift",
      "year": 1990,
      "imdbID": "tt0099697",
      "imdbRating": 4.9,
      "rottenTomatoesRating": 0,
      "metacriticRating": 28,
      "classification": "R"
    },
    {
      "title": "Green Card",
      "year": 1990,
      "imdbID": "tt0099699",
      "imdbRating": 6.3,
      "rottenTomatoesRating": 59,
      "metacriticRating": 58,
      "classification": "PG-13"
    },
    {
      "title": "Gremlins 2: The New Batch",
      "year": 1990,
      "imdbID": "tt0099700",
      "imdbRating": 6.4,
      "rottenTomatoesRating": 71,
      "metacriticRating": 69,
      "classification": "PG-13"
    },
    {
      "title": "The Grifters",
      "year": 1990,
      "imdbID": "tt0099703",
      "imdbRating": 6.9,
      "rottenTomatoesRating": 91,
      "metacriticRating": 86,
      "classification": "R"
    },
    {
      "title": "The Guardian",
      "year": 1990,
      "imdbID": "tt0099710",
      "imdbRating": 5.3,
      "rottenTomatoesRating": 27,
      "metacriticRating": 35,
      "classification": "R"
    },
    {
      "title": "Hamlet",
      "year": 1990,
      "imdbID": "tt0099726",
      "imdbRating": 6.7,
      "rottenTomatoesRating": 76,
      "metacriticRating": 53,
      "classification": "PG"
    },
    {
      "title": "Hamoun",
      "year": 1990,
      "imdbID": "tt0099729",
      "imdbRating": 8,
      "rottenTomatoesRating": null,
      "metacriticRating": null,
      "classification": "Not Rated"
    },
    {
      "title": "The Handmaid's Tale",
      "year": 1990,
      "imdbID": "tt0099731",
      "imdbRating": 6,
      "rottenTomatoesRating": 27,
      "metacriticRating": 53,
      "classification": "R"
    },
    {
      "title": "Hard to Kill",
      "year": 1990,
      "imdbID": "tt0099739",
      "imdbRating": 5.8,
      "rottenTomatoesRating": 33,
      "metacriticRating": 41,
      "classification": "R"
    },
    {
      "title": "Hardware",
      "year": 1990,
      "imdbID": "tt0099740",
      "imdbRating": 5.9,
      "rottenTomatoesRating": 46,
      "metacriticRating": 41,
      "classification": "R"
    },
    {
      "title": "Havana",
      "year": 1990,
      "imdbID": "tt0099747",
      "imdbRating": 6.1,
      "rottenTomatoesRating": 27,
      "metacriticRating": null,
      "classification": "R"
    },
    {
      "title": "Henry & June",
      "year": 1990,
      "imdbID": "tt0099762",
      "imdbRating": 6.3,
      "rottenTomatoesRating": 60,
      "metacriticRating": 62,
      "classification": "NC-17"
    },
    {
      "title": "Europa Europa",
      "year": 1990,
      "imdbID": "tt0099776",
      "imdbRating": 7.6,
      "rottenTomatoesRating": 95,
      "metacriticRating": 75,
      "classification": "R"
    },
    {
      "title": "Home Alone",
      "year": 1990,
      "imdbID": "tt0099785",
      "imdbRating": 7.7,
      "rottenTomatoesRating": 66,
      "metacriticRating": 63,
      "classification": "PG"
    },
    {
      "title": "The Hot Spot",
      "year": 1990,
      "imdbID": "tt0099797",
      "imdbRating": 6.4,
      "rottenTomatoesRating": null,
      "metacriticRating": 56,
      "classification": "R"
    },
    {
      "title": "House Party",
      "year": 1990,
      "imdbID": "tt0099800",
      "imdbRating": 6.5,
      "rottenTomatoesRating": 94,
      "metacriticRating": 76,
      "classification": "R"
    },
    {
      "title": "The Hunt for Red October",
      "year": 1990,
      "imdbID": "tt0099810",
      "imdbRating": 7.5,
      "rottenTomatoesRating": 88,
      "metacriticRating": 58,
      "classification": "PG"
    },
    {
      "title": "Dark Angel",
      "year": 1990,
      "imdbID": "tt0099817",
      "imdbRating": 6.1,
      "rottenTomatoesRating": 36,
      "metacriticRating": null,
      "classification": "R"
    },
    {
      "title": "I Hired a Contract Killer",
      "year": 1990,
      "imdbID": "tt0099818",
      "imdbRating": 7.2,
      "rottenTomatoesRating": null,
      "metacriticRating": null,
      "classification": "Not Rated"
    },
    {
      "title": "I Love You to Death",
      "year": 1990,
      "imdbID": "tt0099819",
      "imdbRating": 6.4,
      "rottenTomatoesRating": 58,
      "metacriticRating": 45,
      "classification": "R"
    },
    {
      "title": "Internal Affairs",
      "year": 1990,
      "imdbID": "tt0099850",
      "imdbRating": 6.5,
      "rottenTomatoesRating": 81,
      "metacriticRating": 63,
      "classification": "R"
    },
    {
      "title": "Jacob's Ladder",
      "year": 1990,
      "imdbID": "tt0099871",
      "imdbRating": 7.4,
      "rottenTomatoesRating": 72,
      "metacriticRating": 62,
      "classification": "R"
    },
    {
      "title": "Jetsons: The Movie",
      "year": 1990,
      "imdbID": "tt0099878",
      "imdbRating": 5.5,
      "rottenTomatoesRating": 27,
      "metacriticRating": 46,
      "classification": "G"
    },
    {
      "title": "Joe Versus the Volcano",
      "year": 1990,
      "imdbID": "tt0099892",
      "imdbRating": 5.9,
      "rottenTomatoesRating": 64,
      "metacriticRating": 45,
      "classification": "PG"
    },
    {
      "title": "Ju Dou",
      "year": 1990,
      "imdbID": "tt0099902",
      "imdbRating": 7.6,
      "rottenTomatoesRating": 100,
      "metacriticRating": null,
      "classification": "PG-13"
    },
    {
      "title": "Kindergarten Cop",
      "year": 1990,
      "imdbID": "tt0099938",
      "imdbRating": 6.2,
      "rottenTomatoesRating": 53,
      "metacriticRating": 61,
      "classification": "PG-13"
    },
    {
      "title": "King of New York",
      "year": 1990,
      "imdbID": "tt0099939",
      "imdbRating": 6.9,
      "rottenTomatoesRating": 70,
      "metacriticRating": 66,
      "classification": "R"
    },
    {
      "title": "The Krays",
      "year": 1990,
      "imdbID": "tt0099951",
      "imdbRating": 6.6,
      "rottenTomatoesRating": 82,
      "metacriticRating": 70,
      "classification": "R"
    },
    {
      "title": "Leatherface: Texas Chainsaw Massacre III",
      "year": 1990,
      "imdbID": "tt0099994",
      "imdbRating": 5,
      "rottenTomatoesRating": 13,
      "metacriticRating": 30,
      "classification": "R"
    },
    {
      "title": "Life Is Sweet",
      "year": 1990,
      "imdbID": "tt0100024",
      "imdbRating": 7.4,
      "rottenTomatoesRating": 93,
      "metacriticRating": 88,
      "classification": "R"
    },
    {
      "title": "Lionheart",
      "year": 1990,
      "imdbID": "tt0100029",
      "imdbRating": 6.2,
      "rottenTomatoesRating": 39,
      "metacriticRating": 41,
      "classification": "R"
    },
    {
      "title": "Look Who's Talking Too",
      "year": 1990,
      "imdbID": "tt0100050",
      "imdbRating": 4.6,
      "rottenTomatoesRating": 13,
      "metacriticRating": null,
      "classification": "PG-13"
    },
    {
      "title": "Lord of the Flies",
      "year": 1990,
      "imdbID": "tt0100054",
      "imdbRating": 6.4,
      "rottenTomatoesRating": 57,
      "metacriticRating": 49,
      "classification": "R"
    },
    {
      "title": "Maniac Cop 2",
      "year": 1990,
      "imdbID": "tt0100107",
      "imdbRating": 5.9,
      "rottenTomatoesRating": 62,
      "metacriticRating": null,
      "classification": "R"
    },
    {
      "title": "The Hairdresser's Husband",
      "year": 1990,
      "imdbID": "tt0100112",
      "imdbRating": 7.2,
      "rottenTomatoesRating": 92,
      "metacriticRating": null,
      "classification": "R"
    },
    {
      "title": "Marked for Death",
      "year": 1990,
      "imdbID": "tt0100114",
      "imdbRating": 5.9,
      "rottenTomatoesRating": 27,
      "metacriticRating": 49,
      "classification": "R"
    },
    {
      "title": "Memphis Belle",
      "year": 1990,
      "imdbID": "tt0100133",
      "imdbRating": 6.9,
      "rottenTomatoesRating": 68,
      "metacriticRating": 59,
      "classification": "PG-13"
    },
    {
      "title": "Men at Work",
      "year": 1990,
      "imdbID": "tt0100135",
      "imdbRating": 5.9,
      "rottenTomatoesRating": 32,
      "metacriticRating": 34,
      "classification": "PG-13"
    },
    {
      "title": "Mermaids",
      "year": 1990,
      "imdbID": "tt0100140",
      "imdbRating": 6.7,
      "rottenTomatoesRating": 71,
      "metacriticRating": 56,
      "classification": "PG-13"
    },
    {
      "title": "Metropolitan",
      "year": 1990,
      "imdbID": "tt0100142",
      "imdbRating": 7.3,
      "rottenTomatoesRating": 93,
      "metacriticRating": 77,
      "classification": "PG-13"
    },
    {
      "title": "Miami Blues",
      "year": 1990,
      "imdbID": "tt0100143",
      "imdbRating": 6.4,
      "rottenTomatoesRating": 85,
      "metacriticRating": 72,
      "classification": "R"
    },
    {
      "title": "Miller's Crossing",
      "year": 1990,
      "imdbID": "tt0100150",
      "imdbRating": 7.7,
      "rottenTomatoesRating": 93,
      "metacriticRating": 66,
      "classification": "R"
    },
    {
      "title": "Misery",
      "year": 1990,
      "imdbID": "tt0100157",
      "imdbRating": 7.8,
      "rottenTomatoesRating": 91,
      "metacriticRating": 75,
      "classification": "R"
    }
  ],
  "pagination": {
    "total": 12184,
    "lastPage": 122,
    "prevPage": null,
    "nextPage": 2,
    "perPage": 100,
    "currentPage": 1,
    "from": 0,
    "to": 100
  }
}